%YAML 1.1
%TAG !u! tag:unity3d.com,2011:
--- !u!1 &6692979659061247753
GameObject:
  m_ObjectHideFlags: 0
  m_CorrespondingSourceObject: {fileID: 0}
  m_PrefabInstance: {fileID: 0}
  m_PrefabAsset: {fileID: 0}
  serializedVersion: 6
  m_Component:
  - component: {fileID: 1165628649641207733}
  - component: {fileID: 874406919508772879}
  - component: {fileID: 1984491841723614299}
  m_Layer: 0
  m_Name: Layer1
  m_TagString: Untagged
  m_Icon: {fileID: 0}
  m_NavMeshLayer: 0
  m_StaticEditorFlags: 0
  m_IsActive: 1
--- !u!4 &1165628649641207733
Transform:
  m_ObjectHideFlags: 0
  m_CorrespondingSourceObject: {fileID: 0}
  m_PrefabInstance: {fileID: 0}
  m_PrefabAsset: {fileID: 0}
  m_GameObject: {fileID: 6692979659061247753}
  m_LocalRotation: {x: -0, y: -0, z: -0, w: 1}
  m_LocalPosition: {x: 0, y: 0, z: 0}
  m_LocalScale: {x: 1, y: 1, z: 1}
  m_Children: []
  m_Father: {fileID: 4099600828505460226}
  m_RootOrder: 0
  m_LocalEulerAnglesHint: {x: 0, y: 0, z: 0}
--- !u!1839735485 &874406919508772879
Tilemap:
  m_ObjectHideFlags: 0
  m_CorrespondingSourceObject: {fileID: 0}
  m_PrefabInstance: {fileID: 0}
  m_PrefabAsset: {fileID: 0}
  m_GameObject: {fileID: 6692979659061247753}
  m_Enabled: 1
  m_Tiles:
  - first: {x: -1, y: -3, z: 0}
    second:
      serializedVersion: 2
      m_TileIndex: 12
      m_TileSpriteIndex: 19
      m_TileMatrixIndex: 0
      m_TileColorIndex: 0
      m_TileObjectToInstantiateIndex: 65535
      dummyAlignment: 0
      m_AllTileFlags: 1073741825
  - first: {x: 0, y: -3, z: 0}
    second:
      serializedVersion: 2
      m_TileIndex: 13
      m_TileSpriteIndex: 18
      m_TileMatrixIndex: 0
      m_TileColorIndex: 0
      m_TileObjectToInstantiateIndex: 65535
      dummyAlignment: 0
      m_AllTileFlags: 1073741825
  - first: {x: 1, y: -3, z: 0}
    second:
      serializedVersion: 2
      m_TileIndex: 14
      m_TileSpriteIndex: 17
      m_TileMatrixIndex: 0
      m_TileColorIndex: 0
      m_TileObjectToInstantiateIndex: 65535
      dummyAlignment: 0
      m_AllTileFlags: 1073741825
  - first: {x: 2, y: -3, z: 0}
    second:
      serializedVersion: 2
      m_TileIndex: 15
      m_TileSpriteIndex: 15
      m_TileMatrixIndex: 0
      m_TileColorIndex: 0
      m_TileObjectToInstantiateIndex: 65535
      dummyAlignment: 0
      m_AllTileFlags: 1073741825
  - first: {x: -1, y: -2, z: 0}
    second:
      serializedVersion: 2
      m_TileIndex: 8
      m_TileSpriteIndex: 14
      m_TileMatrixIndex: 0
      m_TileColorIndex: 0
      m_TileObjectToInstantiateIndex: 65535
      dummyAlignment: 0
      m_AllTileFlags: 1073741825
  - first: {x: 0, y: -2, z: 0}
    second:
      serializedVersion: 2
      m_TileIndex: 9
      m_TileSpriteIndex: 13
      m_TileMatrixIndex: 0
      m_TileColorIndex: 0
      m_TileObjectToInstantiateIndex: 65535
      dummyAlignment: 0
      m_AllTileFlags: 1073741825
  - first: {x: 1, y: -2, z: 0}
    second:
      serializedVersion: 2
      m_TileIndex: 10
      m_TileSpriteIndex: 12
      m_TileMatrixIndex: 0
      m_TileColorIndex: 0
      m_TileObjectToInstantiateIndex: 65535
      dummyAlignment: 0
      m_AllTileFlags: 1073741825
  - first: {x: 2, y: -2, z: 0}
    second:
      serializedVersion: 2
      m_TileIndex: 11
      m_TileSpriteIndex: 11
      m_TileMatrixIndex: 0
      m_TileColorIndex: 0
      m_TileObjectToInstantiateIndex: 65535
      dummyAlignment: 0
      m_AllTileFlags: 1073741825
  - first: {x: -4, y: -1, z: 0}
    second:
      serializedVersion: 2
      m_TileIndex: 17
      m_TileSpriteIndex: 3
      m_TileMatrixIndex: 0
      m_TileColorIndex: 0
      m_TileObjectToInstantiateIndex: 65535
      dummyAlignment: 0
      m_AllTileFlags: 1073741825
  - first: {x: -3, y: -1, z: 0}
    second:
      serializedVersion: 2
      m_TileIndex: 0
      m_TileSpriteIndex: 0
      m_TileMatrixIndex: 0
      m_TileColorIndex: 0
      m_TileObjectToInstantiateIndex: 65535
      dummyAlignment: 0
      m_AllTileFlags: 1073741825
  - first: {x: -1, y: -1, z: 0}
    second:
      serializedVersion: 2
      m_TileIndex: 4
      m_TileSpriteIndex: 10
      m_TileMatrixIndex: 0
      m_TileColorIndex: 0
      m_TileObjectToInstantiateIndex: 65535
      dummyAlignment: 0
      m_AllTileFlags: 1073741825
  - first: {x: 0, y: -1, z: 0}
    second:
      serializedVersion: 2
      m_TileIndex: 5
      m_TileSpriteIndex: 9
      m_TileMatrixIndex: 0
      m_TileColorIndex: 0
      m_TileObjectToInstantiateIndex: 65535
      dummyAlignment: 0
      m_AllTileFlags: 1073741825
  - first: {x: 1, y: -1, z: 0}
    second:
      serializedVersion: 2
      m_TileIndex: 6
      m_TileSpriteIndex: 8
      m_TileMatrixIndex: 0
      m_TileColorIndex: 0
      m_TileObjectToInstantiateIndex: 65535
      dummyAlignment: 0
      m_AllTileFlags: 1073741825
  - first: {x: 2, y: -1, z: 0}
    second:
      serializedVersion: 2
      m_TileIndex: 7
      m_TileSpriteIndex: 7
      m_TileMatrixIndex: 0
      m_TileColorIndex: 0
      m_TileObjectToInstantiateIndex: 65535
      dummyAlignment: 0
      m_AllTileFlags: 1073741825
  - first: {x: -4, y: 0, z: 0}
    second:
      serializedVersion: 2
      m_TileIndex: 19
      m_TileSpriteIndex: 5
      m_TileMatrixIndex: 0
      m_TileColorIndex: 0
      m_TileObjectToInstantiateIndex: 65535
      dummyAlignment: 0
      m_AllTileFlags: 1073741825
  - first: {x: -3, y: 0, z: 0}
    second:
      serializedVersion: 2
      m_TileIndex: 18
      m_TileSpriteIndex: 4
      m_TileMatrixIndex: 0
      m_TileColorIndex: 0
      m_TileObjectToInstantiateIndex: 65535
      dummyAlignment: 0
      m_AllTileFlags: 1073741825
  - first: {x: -1, y: 0, z: 0}
    second:
      serializedVersion: 2
      m_TileIndex: 16
      m_TileSpriteIndex: 16
      m_TileMatrixIndex: 0
      m_TileColorIndex: 0
      m_TileObjectToInstantiateIndex: 65535
      dummyAlignment: 0
      m_AllTileFlags: 1073741825
  - first: {x: 0, y: 0, z: 0}
    second:
      serializedVersion: 2
      m_TileIndex: 1
      m_TileSpriteIndex: 1
      m_TileMatrixIndex: 0
      m_TileColorIndex: 0
      m_TileObjectToInstantiateIndex: 65535
      dummyAlignment: 0
      m_AllTileFlags: 1073741825
  - first: {x: 1, y: 0, z: 0}
    second:
      serializedVersion: 2
      m_TileIndex: 2
      m_TileSpriteIndex: 2
      m_TileMatrixIndex: 0
      m_TileColorIndex: 0
      m_TileObjectToInstantiateIndex: 65535
      dummyAlignment: 0
      m_AllTileFlags: 1073741825
  - first: {x: 2, y: 0, z: 0}
    second:
      serializedVersion: 2
      m_TileIndex: 3
      m_TileSpriteIndex: 6
      m_TileMatrixIndex: 0
      m_TileColorIndex: 0
      m_TileObjectToInstantiateIndex: 65535
      dummyAlignment: 0
      m_AllTileFlags: 1073741825
  - first: {x: 0, y: 1, z: 0}
    second:
      serializedVersion: 2
      m_TileIndex: 1
      m_TileSpriteIndex: 1
      m_TileMatrixIndex: 0
      m_TileColorIndex: 0
      m_TileObjectToInstantiateIndex: 65535
      dummyAlignment: 0
      m_AllTileFlags: 1073741825
  - first: {x: 1, y: 1, z: 0}
    second:
      serializedVersion: 2
      m_TileIndex: 2
      m_TileSpriteIndex: 2
      m_TileMatrixIndex: 0
      m_TileColorIndex: 0
      m_TileObjectToInstantiateIndex: 65535
      dummyAlignment: 0
      m_AllTileFlags: 1073741825
  m_AnimatedTiles: {}
  m_TileAssetArray:
  - m_RefCount: 1
    m_Data: {fileID: 11400000, guid: 6eda764cba6b37a58b33665da19b0ede, type: 2}
  - m_RefCount: 2
    m_Data: {fileID: 11400000, guid: e2e5d5ea0fd342e72b7a7fe5225cdd5a, type: 2}
  - m_RefCount: 2
    m_Data: {fileID: 11400000, guid: 7cfd95e04bb8eafc4ac066d4a4868455, type: 2}
  - m_RefCount: 1
    m_Data: {fileID: 11400000, guid: 0afa15a775cae05b6af89737d820c0b8, type: 2}
  - m_RefCount: 1
    m_Data: {fileID: 11400000, guid: 205f179998801fe188e2a4084424262b, type: 2}
  - m_RefCount: 1
    m_Data: {fileID: 11400000, guid: 197442bc4a33e383a85fb538843c41cc, type: 2}
  - m_RefCount: 1
    m_Data: {fileID: 11400000, guid: 46482d2cec7a40d77b0135a4e1a924f6, type: 2}
  - m_RefCount: 1
    m_Data: {fileID: 11400000, guid: 25188292cc37b00b2a0a69ada98367e3, type: 2}
  - m_RefCount: 1
    m_Data: {fileID: 11400000, guid: e96c5a9484b22481996400414af7a84e, type: 2}
  - m_RefCount: 1
    m_Data: {fileID: 11400000, guid: ce9839f94c9ab29e6893d80f75b4b8b8, type: 2}
  - m_RefCount: 1
    m_Data: {fileID: 11400000, guid: 51206f91cc8c06c2da45e0e76225947b, type: 2}
  - m_RefCount: 1
    m_Data: {fileID: 11400000, guid: 051554c1a56a78ac49f2575a1fab310a, type: 2}
  - m_RefCount: 1
    m_Data: {fileID: 11400000, guid: b7d6f4bd0cbea028c824a9b437da82fe, type: 2}
  - m_RefCount: 1
    m_Data: {fileID: 11400000, guid: 34399bf3387f16845b26eb4ddd5a3156, type: 2}
  - m_RefCount: 1
    m_Data: {fileID: 11400000, guid: 164275e9a57d33a80a9dfe74afba1483, type: 2}
  - m_RefCount: 1
    m_Data: {fileID: 11400000, guid: 71f78ce74e9f10a528f6a0a4880fed9f, type: 2}
  - m_RefCount: 1
    m_Data: {fileID: 11400000, guid: 59852e897c3172d8baf6ceb275e91b90, type: 2}
  - m_RefCount: 1
    m_Data: {fileID: 11400000, guid: c69a02de9f95e9f0aae73340b821ffb0, type: 2}
  - m_RefCount: 1
    m_Data: {fileID: 11400000, guid: 312098788201744359ee9e5fc97d3f7f, type: 2}
  - m_RefCount: 1
    m_Data: {fileID: 11400000, guid: 9a79b9a19feb5593eb8451c65140525e, type: 2}
  m_TileSpriteArray:
  - m_RefCount: 1
    m_Data: {fileID: -1759670724710487359, guid: e006fddd96704333c8a2093194bf8f9d, type: 3}
  - m_RefCount: 2
    m_Data: {fileID: -2744459860488241012, guid: b23aec3ea0f13635d91ce18ad73ecde6, type: 3}
  - m_RefCount: 2
    m_Data: {fileID: 689176432287940110, guid: b23aec3ea0f13635d91ce18ad73ecde6, type: 3}
  - m_RefCount: 1
    m_Data: {fileID: 3801437908501027810, guid: e006fddd96704333c8a2093194bf8f9d, type: 3}
  - m_RefCount: 1
    m_Data: {fileID: -6090966352802271035, guid: e006fddd96704333c8a2093194bf8f9d, type: 3}
  - m_RefCount: 1
    m_Data: {fileID: -667938295744028906, guid: e006fddd96704333c8a2093194bf8f9d, type: 3}
  - m_RefCount: 1
    m_Data: {fileID: -3465110836789601462, guid: b23aec3ea0f13635d91ce18ad73ecde6, type: 3}
  - m_RefCount: 1
    m_Data: {fileID: 1984830909761902803, guid: b23aec3ea0f13635d91ce18ad73ecde6, type: 3}
  - m_RefCount: 1
    m_Data: {fileID: 2129779222011270706, guid: b23aec3ea0f13635d91ce18ad73ecde6, type: 3}
  - m_RefCount: 1
    m_Data: {fileID: -1112349361429245251, guid: b23aec3ea0f13635d91ce18ad73ecde6, type: 3}
  - m_RefCount: 1
    m_Data: {fileID: -7163797405583273556, guid: b23aec3ea0f13635d91ce18ad73ecde6, type: 3}
  - m_RefCount: 1
    m_Data: {fileID: -323903969209065456, guid: b23aec3ea0f13635d91ce18ad73ecde6, type: 3}
  - m_RefCount: 1
    m_Data: {fileID: 4165128164306938461, guid: b23aec3ea0f13635d91ce18ad73ecde6, type: 3}
  - m_RefCount: 1
    m_Data: {fileID: -6225525426658374, guid: b23aec3ea0f13635d91ce18ad73ecde6, type: 3}
  - m_RefCount: 1
    m_Data: {fileID: 6397742363319337115, guid: b23aec3ea0f13635d91ce18ad73ecde6, type: 3}
  - m_RefCount: 1
    m_Data: {fileID: 4974348922224852886, guid: b23aec3ea0f13635d91ce18ad73ecde6, type: 3}
  - m_RefCount: 1
    m_Data: {fileID: 7672064755138430786, guid: b23aec3ea0f13635d91ce18ad73ecde6, type: 3}
  - m_RefCount: 1
    m_Data: {fileID: 2788575817972176465, guid: b23aec3ea0f13635d91ce18ad73ecde6, type: 3}
  - m_RefCount: 1
    m_Data: {fileID: -2165935937957050944, guid: b23aec3ea0f13635d91ce18ad73ecde6, type: 3}
  - m_RefCount: 1
    m_Data: {fileID: -5937689324370487578, guid: b23aec3ea0f13635d91ce18ad73ecde6, type: 3}
  m_TileMatrixArray:
  - m_RefCount: 22
    m_Data:
      e00: 1
      e01: 0
      e02: 0
      e03: 0
      e10: 0
      e11: 1
      e12: 0
      e13: 0
      e20: 0
      e21: 0
      e22: 1
      e23: 0
      e30: 0
      e31: 0
      e32: 0
      e33: 1
  - m_RefCount: 0
    m_Data:
      e00: 0
      e01: -1
      e02: 0
      e03: 0
      e10: 1
      e11: 0
      e12: 0
      e13: 0
      e20: 0
      e21: 0
      e22: 1
      e23: 0
      e30: 0
      e31: 0
      e32: 0
      e33: 1
  m_TileColorArray:
  - m_RefCount: 22
    m_Data: {r: 1, g: 1, b: 1, a: 1}
  - m_RefCount: 0
    m_Data: {r: 0.965407, g: 0.4338109, b: 0.4420319, a: 1}
  m_TileObjectToInstantiateArray: []
  m_AnimationFrameRate: 1
  m_Color: {r: 1, g: 1, b: 1, a: 1}
  m_Origin: {x: -5, y: -3, z: 0}
  m_Size: {x: 8, y: 5, z: 1}
  m_TileAnchor: {x: 0.5, y: 0.5, z: 0}
  m_TileOrientation: 0
  m_TileOrientationMatrix:
    e00: 1
    e01: 0
    e02: 0
    e03: 0
    e10: 0
    e11: 1
    e12: 0
    e13: 0
    e20: 0
    e21: 0
    e22: 1
    e23: 0
    e30: 0
    e31: 0
    e32: 0
    e33: 1
--- !u!483693784 &1984491841723614299
TilemapRenderer:
  m_ObjectHideFlags: 0
  m_CorrespondingSourceObject: {fileID: 0}
  m_PrefabInstance: {fileID: 0}
  m_PrefabAsset: {fileID: 0}
  m_GameObject: {fileID: 6692979659061247753}
  m_Enabled: 1
  m_CastShadows: 0
  m_ReceiveShadows: 0
  m_DynamicOccludee: 0
  m_StaticShadowCaster: 0
  m_MotionVectors: 1
  m_LightProbeUsage: 0
  m_ReflectionProbeUsage: 0
  m_RayTracingMode: 0
  m_RayTraceProcedural: 0
  m_RenderingLayerMask: 1
  m_RendererPriority: 0
  m_Materials:
  - {fileID: 10754, guid: 0000000000000000f000000000000000, type: 0}
  m_StaticBatchInfo:
    firstSubMesh: 0
    subMeshCount: 0
  m_StaticBatchRoot: {fileID: 0}
  m_ProbeAnchor: {fileID: 0}
  m_LightProbeVolumeOverride: {fileID: 0}
  m_ScaleInLightmap: 1
  m_ReceiveGI: 1
  m_PreserveUVs: 0
  m_IgnoreNormalsForChartDetection: 0
  m_ImportantGI: 0
  m_StitchLightmapSeams: 1
  m_SelectedEditorRenderState: 0
  m_MinimumChartSize: 4
  m_AutoUVMaxDistance: 0.5
  m_AutoUVMaxAngle: 89
  m_LightmapParameters: {fileID: 0}
  m_SortingLayerID: 0
  m_SortingLayer: 0
  m_SortingOrder: 0
  m_ChunkSize: {x: 32, y: 32, z: 32}
  m_ChunkCullingBounds: {x: 0, y: 0, z: 0}
  m_MaxChunkCount: 16
  m_MaxFrameAge: 16
  m_SortOrder: 0
  m_Mode: 0
  m_DetectChunkCullingBounds: 0
  m_MaskInteraction: 0
--- !u!1 &9185730692972791860
GameObject:
  m_ObjectHideFlags: 0
  m_CorrespondingSourceObject: {fileID: 0}
  m_PrefabInstance: {fileID: 0}
  m_PrefabAsset: {fileID: 0}
  serializedVersion: 6
  m_Component:
  - component: {fileID: 4099600828505460226}
  - component: {fileID: 3606013261745620457}
  m_Layer: 0
  m_Name: Basic
  m_TagString: Untagged
  m_Icon: {fileID: 0}
  m_NavMeshLayer: 0
  m_StaticEditorFlags: 0
  m_IsActive: 1
--- !u!4 &4099600828505460226
Transform:
  m_ObjectHideFlags: 0
  m_CorrespondingSourceObject: {fileID: 0}
  m_PrefabInstance: {fileID: 0}
  m_PrefabAsset: {fileID: 0}
  m_GameObject: {fileID: 9185730692972791860}
  m_LocalRotation: {x: 0, y: 0, z: 0, w: 1}
  m_LocalPosition: {x: 0, y: 0, z: 0}
  m_LocalScale: {x: 1, y: 1, z: 1}
  m_Children:
  - {fileID: 1165628649641207733}
  m_Father: {fileID: 0}
  m_RootOrder: 0
  m_LocalEulerAnglesHint: {x: 0, y: 0, z: 0}
--- !u!156049354 &3606013261745620457
Grid:
  m_ObjectHideFlags: 0
  m_CorrespondingSourceObject: {fileID: 0}
  m_PrefabInstance: {fileID: 0}
  m_PrefabAsset: {fileID: 0}
  m_GameObject: {fileID: 9185730692972791860}
  m_Enabled: 1
  m_CellSize: {x: 1, y: 1, z: 0}
  m_CellGap: {x: 0, y: 0, z: 0}
  m_CellLayout: 0
  m_CellSwizzle: 0
--- !u!114 &4420044586087807890
MonoBehaviour:
  m_ObjectHideFlags: 0
  m_CorrespondingSourceObject: {fileID: 0}
  m_PrefabInstance: {fileID: 0}
  m_PrefabAsset: {fileID: 0}
  m_GameObject: {fileID: 0}
  m_Enabled: 1
  m_EditorHideFlags: 0
  m_Script: {fileID: 12395, guid: 0000000000000000e000000000000000, type: 0}
  m_Name: Palette Settings
  m_EditorClassIdentifier: 
  cellSizing: 0
  m_TransparencySortMode: 0
  m_TransparencySortAxis: {x: 0, y: 0, z: 1}
