%YAML 1.1
%TAG !u! tag:unity3d.com,2011:
--- !u!1045 &1
EditorBuildSettings:
  m_ObjectHideFlags: 0
  serializedVersion: 2
  m_Scenes:
  - enabled: 0
    path: 
    guid: 00000000000000000000000000000000
  - enabled: 1
    path: Assets/Scenes/HomeScreen.unity
    guid: 02f79f64c298fdbe6adf9e6d72c9d8ca
  - enabled: 1
    path: Assets/Scenes/StartScene.unity
    guid: c63fe758669343cce86a4726bb0959bb
  - enabled: 1
    path: Assets/Scenes/Level1.unity
    guid: 49817fdb5e4a62dcb8ac963df7317265
  - enabled: 1
    path: Assets/Scenes/Level2.unity
    guid: 4bcb6d330049b9ad1b5c47eca6ea495d
  - enabled: 1
    path: Assets/Scenes/Level3.unity
    guid: 8df916b435e82649bba32a1ea94b5e55
  - enabled: 1
    path: Assets/Scenes/Level4.unity
    guid: 7f3becb7cea58575ea9e9360f5223c06
  - enabled: 1
    path: Assets/Scenes/Level5.unity
    guid: 986e40077517329df8d11391dda80213
  m_configObjects: {}
