Library/Bee/artifacts/movedfrom/UnityEditor.UI.ref.dll_4985406635609472171.movedfrom
Library/Bee/artifacts/movedfrom/UnityEngine.UI.ref.dll_114154900111418646.movedfrom
Library/Bee/artifacts/movedfrom/UnityEditor.Graphs.dll_5576239134540301006.movedfrom
Library/Bee/artifacts/movedfrom/UnityEditor.CoreModule.dll_14679424647457739932.movedfrom
Library/Bee/artifacts/movedfrom/UnityEditor.DeviceSimulatorModule.dll_17794674928722255845.movedfrom
Library/Bee/artifacts/movedfrom/UnityEditor.GraphViewModule.dll_1045268707430388842.movedfrom
Library/Bee/artifacts/movedfrom/UnityEditor.PackageManagerUIModule.dll_16848055120186201848.movedfrom
Library/Bee/artifacts/movedfrom/UnityEditor.QuickSearchModule.dll_12690556554014051660.movedfrom
Library/Bee/artifacts/movedfrom/UnityEditor.SceneTemplateModule.dll_189581385363647821.movedfrom
Library/Bee/artifacts/movedfrom/UnityEditor.UIBuilderModule.dll_7136577541144366494.movedfrom
Library/Bee/artifacts/movedfrom/UnityEditor.UIElementsModule.dll_15331758970249639512.movedfrom
Library/Bee/artifacts/movedfrom/UnityEditor.UIElementsSamplesModule.dll_18224101621978781845.movedfrom
Library/Bee/artifacts/movedfrom/UnityEditor.UIServiceModule.dll_11239938868149493176.movedfrom
Library/Bee/artifacts/movedfrom/UnityEditor.UnityConnectModule.dll_15244452183339962706.movedfrom
Library/Bee/artifacts/movedfrom/UnityEditor.dll_14658910736961303097.movedfrom
Library/Bee/artifacts/movedfrom/UnityEngine.AIModule.dll_6352545086720468848.movedfrom
Library/Bee/artifacts/movedfrom/UnityEngine.AccessibilityModule.dll_3839022754709279978.movedfrom
Library/Bee/artifacts/movedfrom/UnityEngine.AndroidJNIModule.dll_5984793937804715310.movedfrom
Library/Bee/artifacts/movedfrom/UnityEngine.AnimationModule.dll_15926705766050113808.movedfrom
Library/Bee/artifacts/movedfrom/UnityEngine.AssetBundleModule.dll_17584055036448211518.movedfrom
Library/Bee/artifacts/movedfrom/UnityEngine.AudioModule.dll_11746560491513038338.movedfrom
Library/Bee/artifacts/movedfrom/UnityEngine.ClothModule.dll_715095436739912934.movedfrom
Library/Bee/artifacts/movedfrom/UnityEngine.ClusterInputModule.dll_5993061384847352856.movedfrom
Library/Bee/artifacts/movedfrom/UnityEngine.ClusterRendererModule.dll_18203590387367751017.movedfrom
Library/Bee/artifacts/movedfrom/UnityEngine.CoreModule.dll_17210679989999665095.movedfrom
Library/Bee/artifacts/movedfrom/UnityEngine.CrashReportingModule.dll_7292723514756380095.movedfrom
Library/Bee/artifacts/movedfrom/UnityEngine.DSPGraphModule.dll_18047183516925810885.movedfrom
Library/Bee/artifacts/movedfrom/UnityEngine.DirectorModule.dll_17663988968104200100.movedfrom
Library/Bee/artifacts/movedfrom/UnityEngine.GIModule.dll_17322268201883488138.movedfrom
Library/Bee/artifacts/movedfrom/UnityEngine.GameCenterModule.dll_9032967939460159007.movedfrom
Library/Bee/artifacts/movedfrom/UnityEngine.GridModule.dll_14720501580464854462.movedfrom
Library/Bee/artifacts/movedfrom/UnityEngine.HotReloadModule.dll_6795866453918106770.movedfrom
Library/Bee/artifacts/movedfrom/UnityEngine.IMGUIModule.dll_15808701144185133539.movedfrom
Library/Bee/artifacts/movedfrom/UnityEngine.ImageConversionModule.dll_7535123279643272541.movedfrom
Library/Bee/artifacts/movedfrom/UnityEngine.InputLegacyModule.dll_9605113689843415087.movedfrom
Library/Bee/artifacts/movedfrom/UnityEngine.InputModule.dll_682843142658845350.movedfrom
Library/Bee/artifacts/movedfrom/UnityEngine.JSONSerializeModule.dll_10763176597592864116.movedfrom
Library/Bee/artifacts/movedfrom/UnityEngine.LocalizationModule.dll_10482246769506506513.movedfrom
Library/Bee/artifacts/movedfrom/UnityEngine.ParticleSystemModule.dll_13278650962098176333.movedfrom
Library/Bee/artifacts/movedfrom/UnityEngine.PerformanceReportingModule.dll_2813033247209266054.movedfrom
Library/Bee/artifacts/movedfrom/UnityEngine.Physics2DModule.dll_3003046027152466085.movedfrom
Library/Bee/artifacts/movedfrom/UnityEngine.PhysicsModule.dll_3211621941707613459.movedfrom
Library/Bee/artifacts/movedfrom/UnityEngine.ProfilerModule.dll_2839890751324589745.movedfrom
Library/Bee/artifacts/movedfrom/UnityEngine.RuntimeInitializeOnLoadManagerInitializerModule.dll_17338372239538281326.movedfrom
Library/Bee/artifacts/movedfrom/UnityEngine.ScreenCaptureModule.dll_12629827955246113238.movedfrom
Library/Bee/artifacts/movedfrom/UnityEngine.SharedInternalsModule.dll_17051579853802299565.movedfrom
Library/Bee/artifacts/movedfrom/UnityEngine.SpriteMaskModule.dll_7388154138924903321.movedfrom
Library/Bee/artifacts/movedfrom/UnityEngine.SpriteShapeModule.dll_966103754045405768.movedfrom
Library/Bee/artifacts/movedfrom/UnityEngine.StreamingModule.dll_10492247844908228686.movedfrom
Library/Bee/artifacts/movedfrom/UnityEngine.SubstanceModule.dll_7946328985589243484.movedfrom
Library/Bee/artifacts/movedfrom/UnityEngine.SubsystemsModule.dll_15075066848174887852.movedfrom
Library/Bee/artifacts/movedfrom/UnityEngine.TLSModule.dll_12176315161219397927.movedfrom
Library/Bee/artifacts/movedfrom/UnityEngine.TerrainModule.dll_5104958351026122241.movedfrom
Library/Bee/artifacts/movedfrom/UnityEngine.TerrainPhysicsModule.dll_13313176533872262106.movedfrom
Library/Bee/artifacts/movedfrom/UnityEngine.TextCoreModule.dll_10222586537973086132.movedfrom
Library/Bee/artifacts/movedfrom/UnityEngine.TextRenderingModule.dll_15602047624683037131.movedfrom
Library/Bee/artifacts/movedfrom/UnityEngine.TilemapModule.dll_16561103707296517898.movedfrom
Library/Bee/artifacts/movedfrom/UnityEngine.UIElementsModule.dll_15380855772240383907.movedfrom
Library/Bee/artifacts/movedfrom/UnityEngine.UIElementsNativeModule.dll_3767830031412152090.movedfrom
Library/Bee/artifacts/movedfrom/UnityEngine.UIModule.dll_6024800656511429916.movedfrom
Library/Bee/artifacts/movedfrom/UnityEngine.UNETModule.dll_9331148559307339072.movedfrom
Library/Bee/artifacts/movedfrom/UnityEngine.UmbraModule.dll_2150704806940668277.movedfrom
Library/Bee/artifacts/movedfrom/UnityEngine.UnityAnalyticsModule.dll_15557314910049932105.movedfrom
Library/Bee/artifacts/movedfrom/UnityEngine.UnityConnectModule.dll_13902243219274469885.movedfrom
Library/Bee/artifacts/movedfrom/UnityEngine.UnityCurlModule.dll_1162957521328610045.movedfrom
Library/Bee/artifacts/movedfrom/UnityEngine.UnityTestProtocolModule.dll_13306933831339978219.movedfrom
Library/Bee/artifacts/movedfrom/UnityEngine.UnityWebRequestAssetBundleModule.dll_9955385852444935386.movedfrom
Library/Bee/artifacts/movedfrom/UnityEngine.UnityWebRequestAudioModule.dll_11458910847056766494.movedfrom
Library/Bee/artifacts/movedfrom/UnityEngine.UnityWebRequestModule.dll_8804865326494679004.movedfrom
Library/Bee/artifacts/movedfrom/UnityEngine.UnityWebRequestTextureModule.dll_14664566653530409907.movedfrom
Library/Bee/artifacts/movedfrom/UnityEngine.UnityWebRequestWWWModule.dll_6368461947633548015.movedfrom
Library/Bee/artifacts/movedfrom/UnityEngine.VFXModule.dll_3015598171005706900.movedfrom
Library/Bee/artifacts/movedfrom/UnityEngine.VRModule.dll_11992675468116619924.movedfrom
Library/Bee/artifacts/movedfrom/UnityEngine.VehiclesModule.dll_7846979056295663423.movedfrom
Library/Bee/artifacts/movedfrom/UnityEngine.VideoModule.dll_14415370339772522919.movedfrom
Library/Bee/artifacts/movedfrom/UnityEngine.VirtualTexturingModule.dll_6401508301691766693.movedfrom
Library/Bee/artifacts/movedfrom/UnityEngine.WindModule.dll_7288928028230483504.movedfrom
Library/Bee/artifacts/movedfrom/UnityEngine.XRModule.dll_15649249839837626354.movedfrom
Library/Bee/artifacts/movedfrom/UnityEngine.dll_18308030230149758750.movedfrom
Library/Bee/artifacts/movedfrom/UnityEditor.LinuxStandalone.Extensions.dll_18281095291456740084.movedfrom
Library/Bee/artifacts/movedfrom/UnityEditor.WebGL.Extensions.dll_11001196068543887828.movedfrom